…
deserts %>%
  select(genus, species) %>%
  group_by(genus, species) %>%
  summarise(n=n()) %>%
  arrange(desc(n))
```

```
## `summarise()` has grouped output by 'genus'. You can override using the `.groups` argument.
```

```
## # A tibble: 48 x 3
## # Groups:   genus [26]
##    genus           species          n
##    <chr>           <chr>        <int>
##  1 Dipodomys       merriami     10596
##  2 Chaetodipus     penicillatus  3123
##  3 Dipodomys       ordii         3027
##  4 Chaetodipus     baileyi       2891
##  5 Reithrodontomys megalotis     2609
##  6 Dipodomys       spectabilis   2504
##  7 Onychomys       torridus      2249
##  8 Perognathus     flavus        1597
##  9 Peromyscus      eremicus      1299
## 10 Neotoma         albigula      1252
## # … with 38 more rows
```
…
9. Which two species have, on average, the highest weight? Once you have identified them, make a new column that is a ratio of `weight` to `hindfoot_length`. Make a plot that shows the range of this new ratio and fill by sex


```r
deserts %>%
  filter(weight != "NA") %>%
  group_by(species_id) %>%
  summarise(average_weight = mean(weight)) %>%
  arrange(desc(average_weight)) #NL and DS have the highest average weight. 
```

```
## # A tibble: 25 x 2
##    species_id average_weight
##    <chr>               <dbl>
##  1 NL                  159. 
##  2 DS                  120. 
##  3 SS                   93.5
##  4 SH                   73.1
##  5 SF                   58.9
##  6 SO                   55.4
##  7 DO                   48.9
##  8 DM                   43.2
##  9 PB                   31.7
## 10 OL                   31.6
## # … with 15 more rows
```


```r
deserts %>%
  filter(weight != "NA" ,
         hindfoot_length != "NA") %>%
  group_by(species_id) %>%
  mutate(weight_hindfoot_ratio = weight / hindfoot_length)
```

```
## # A tibble: 30,738 x 14
## # Groups:   species_id [24]
##    record_id month   day  year plot_id species_id sex   hindfoot_length weight
##        <dbl> <dbl> <dbl> <dbl>   <dbl> <chr>      <chr>           <dbl>  <dbl>
##  1        63     8    19  1977       3 DM         M                  35     40
##  2        64     8    19  1977       7 DM         M                  37     48
##  3        65     8    19  1977       4 DM         F                  34     29
##  4        66     8    19  1977       4 DM         F                  35     46
##  5        67     8    19  1977       7 DM         M                  35     36
##  6        68     8    19  1977       8 DO         F                  32     52
##  7        69     8    19  1977       2 PF         M                  15      8
##  8        70     8    19  1977       3 OX         F                  21     22
##  9        71     8    19  1977       7 DM         F                  36     35
## 10        74     8    19  1977       8 PF         M                  12      7
## # … with 30,728 more rows, and 5 more variables: genus <chr>, species <chr>,
## #   taxa <chr>, plot_type <chr>, weight_hindfoot_ratio <dbl>
```
…
