…
```r
homerange$taxon <- as.factor(homerange$taxon)
homerange$order <- as.factor(homerange$order)
```

**4. What taxa are represented in the `homerange` data frame? Make a new data frame `taxa` that is restricted to taxon, common name, class, order, family, genus, species.**  

```r
taxa <- select(homerange, taxon:species)
taxa
```

```
## # A tibble: 569 x 7
##    taxon     common.name       class      order     family    genus    species  
##    <fct>     <chr>             <chr>      <fct>     <chr>     <chr>    <chr>    
##  1 lake fis… american eel      actinopte… anguilli… anguilli… anguilla rostrata 
##  2 river fi… blacktail redhor… actinopte… cyprinif… catostom… moxosto… poecilura
##  3 river fi… central stonerol… actinopte… cyprinif… cyprinid… campost… anomalum 
##  4 river fi… rosyside dace     actinopte… cyprinif… cyprinid… clinost… funduloi…
##  5 river fi… longnose dace     actinopte… cyprinif… cyprinid… rhinich… cataract…
##  6 river fi… muskellunge       actinopte… esocifor… esocidae  esox     masquino…
##  7 marine f… pollack           actinopte… gadiform… gadidae   pollach… pollachi…
##  8 marine f… saithe            actinopte… gadiform… gadidae   pollach… virens   
##  9 marine f… lined surgeonfish actinopte… percifor… acanthur… acanthu… lineatus 
## 10 marine f… orangespine unic… actinopte… percifor… acanthur… naso     lituratus
## # … with 559 more rows
```
…
```r
#largest deer is 'Alces alces'
```

**10. As measured by the data, which snake species has the smallest homerange? Show all of your work, please. Look this species up online and tell me about it!** **Snake is found in taxon column**  

```r
snake <- filter(homerange, taxon == "snakes")
snake
```

```
## # A tibble: 41 x 24
##    taxon common.name class order family genus species primarymethod N    
##    <fct> <chr>       <chr> <fct> <chr>  <chr> <chr>   <chr>         <chr>
##  1 snak… western wo… rept… squa… colub… carp… vermis  radiotag      1    
##  2 snak… eastern wo… rept… squa… colub… carp… viridis radiotag      10   
##  3 snak… racer       rept… squa… colub… colu… constr… telemetry     15   
##  4 snak… yellow bel… rept… squa… colub… colu… constr… telemetry     12   
##  5 snak… ringneck s… rept… squa… colub… diad… puncta… mark-recaptu… <NA> 
##  6 snak… eastern in… rept… squa… colub… drym… couperi telemetry     1    
##  7 snak… great plai… rept… squa… colub… elap… guttat… telemetry     12   
##  8 snak… western ra… rept… squa… colub… elap… obsole… telemetry     18   
##  9 snak… hognose sn… rept… squa… colub… hete… platir… telemetry     8    
## 10 snak… European w… rept… squa… colub… hier… viridi… telemetry     32   
## # … with 31 more rows, and 15 more variables: mean.mass.g <dbl>,
## #   log10.mass <dbl>, alternative.mass.reference <chr>, mean.hra.m2 <dbl>,
## #   log10.hra <dbl>, hra.reference <chr>, realm <chr>, thermoregulation <chr>,
## #   locomotion <chr>, trophic.guild <chr>, dimension <chr>, preymass <dbl>,
## #   log10.preymass <dbl>, PPMR <dbl>, prey.size.reference <chr>
```

```r
arrange(snake, mean.hra.m2)
```

```
## # A tibble: 41 x 24
##    taxon common.name class order family genus species primarymethod N    
##    <fct> <chr>       <chr> <fct> <chr>  <chr> <chr>   <chr>         <chr>
##  1 snak… namaqua dw… rept… squa… viper… bitis schnei… telemetry     11   
##  2 snak… eastern wo… rept… squa… colub… carp… viridis radiotag      10   
##  3 snak… butlers ga… rept… squa… colub… tham… butleri mark-recaptu… 1    
##  4 snak… western wo… rept… squa… colub… carp… vermis  radiotag      1    
##  5 snak… snubnosed … rept… squa… viper… vipe… latast… telemetry     7    
##  6 snak… chinese pi… rept… squa… viper… gloy… shedao… telemetry     16   
##  7 snak… ringneck s… rept… squa… colub… diad… puncta… mark-recaptu… <NA> 
##  8 snak… cottonmouth rept… squa… viper… agki… pisciv… telemetry     15   
##  9 snak… redbacked … rept… squa… colub… ooca… rufodo… telemetry     21   
## 10 snak… gopher sna… rept… squa… colub… pitu… cateni… telemetry     4    
## # … with 31 more rows, and 15 more variables: mean.mass.g <dbl>,
## #   log10.mass <dbl>, alternative.mass.reference <chr>, mean.hra.m2 <dbl>,
## #   log10.hra <dbl>, hra.reference <chr>, realm <chr>, thermoregulation <chr>,
## #   locomotion <chr>, trophic.guild <chr>, dimension <chr>, preymass <dbl>,
## #   log10.preymass <dbl>, PPMR <dbl>, prey.size.reference <chr>
```
…
