…
```
## See spec(...) for full column specifications.
```

```r
sleep
```

```
## # A tibble: 569 x 24
##    taxon common.name class order family genus species primarymethod N    
##    <chr> <chr>       <chr> <chr> <chr>  <chr> <chr>   <chr>         <chr>
##  1 lake… american e… acti… angu… angui… angu… rostra… telemetry     16   
##  2 rive… blacktail … acti… cypr… catos… moxo… poecil… mark-recaptu… <NA> 
##  3 rive… central st… acti… cypr… cypri… camp… anomal… mark-recaptu… 20   
##  4 rive… rosyside d… acti… cypr… cypri… clin… fundul… mark-recaptu… 26   
##  5 rive… longnose d… acti… cypr… cypri… rhin… catara… mark-recaptu… 17   
##  6 rive… muskellunge acti… esoc… esoci… esox  masqui… telemetry     5    
##  7 mari… pollack     acti… gadi… gadid… poll… pollac… telemetry     2    
##  8 mari… saithe      acti… gadi… gadid… poll… virens  telemetry     2    
##  9 mari… lined surg… acti… perc… acant… acan… lineat… direct obser… <NA> 
## 10 mari… orangespin… acti… perc… acant… naso  litura… telemetry     8    
## # … with 559 more rows, and 15 more variables: mean.mass.g <dbl>,
## #   log10.mass <dbl>, alternative.mass.reference <chr>, mean.hra.m2 <dbl>,
## #   log10.hra <dbl>, hra.reference <chr>, realm <chr>, thermoregulation <chr>,
## #   locomotion <chr>, trophic.guild <chr>, dimension <chr>, preymass <dbl>,
## #   log10.preymass <dbl>, PPMR <dbl>, prey.size.reference <chr>
```
…
