…
6. Which country had the largest overall catch in the year 2000?

```r
fisheries_tidy_focused %>%
  filter(year == 2000) %>%
  group_by(country) %>%
  summarize(catch_total = sum(catch, na.rm=T)) %>%
  arrange(desc(catch_total))
```

```
## # A tibble: 193 x 2
##    country                  catch_total
##    <fct>                          <dbl>
##  1 China                          25899
##  2 Russian Federation             12181
##  3 United States of America       11762
##  4 Japan                           8510
##  5 Indonesia                       8341
##  6 Peru                            7443
##  7 Chile                           6906
##  8 India                           6351
##  9 Thailand                        6243
## 10 Korea, Republic of              6124
## # … with 183 more rows
```

7. Which country caught the most sardines (_Sardina pilchardus_) between the years 1990-2000?

```r
fisheries_tidy_focused %>%
  filter(asfis_species_name == "Sardina pilchardus") %>%
  filter(year >= 1990 & year <= 2000) %>%
  group_by(country) %>%
  summarize(sardine_decade = sum(catch, na.rm=T)) %>%
  arrange(desc(sardine_decade))
```

```
## # A tibble: 37 x 2
##    country               sardine_decade
##    <fct>                          <dbl>
##  1 Morocco                         7470
##  2 Spain                           3507
##  3 Russian Federation              1639
##  4 Ukraine                         1030
##  5 France                           966
##  6 Portugal                         818
##  7 Greece                           528
##  8 Italy                            507
##  9 Serbia and Montenegro            478
## 10 Denmark                          477
## # … with 27 more rows
```

8. Which five countries caught the most cephalopods between 2008-2012?

```r
fisheries_tidy_focused %>%
  filter(str_detect(isscaap_taxonomic_group, "Squids")) %>%
  filter(year >= 2008 & year <= 2012) %>%
  group_by(country) %>%
  summarise(catch_total = sum(catch), na.rm = T) %>%
  arrange(desc(catch_total))
```

```
## # A tibble: 122 x 3
##    country                 catch_total na.rm
##    <fct>                         <dbl> <lgl>
##  1 Peru                           3422 TRUE 
##  2 Thailand                        949 TRUE 
##  3 India                           570 TRUE 
##  4 Palestine, Occupied Tr.         412 TRUE 
##  5 Malta                           398 TRUE 
##  6 Singapore                       363 TRUE 
##  7 Dominican Republic              361 TRUE 
##  8 Congo, Republic of              322 TRUE 
##  9 Qatar                           308 TRUE 
## 10 Montenegro                      290 TRUE 
## # … with 112 more rows
```

9. Which species had the highest catch total between 2008-2012? (hint: Osteichthyes is not a species)

```r
fisheries_tidy_focused %>%
  filter(year >= 2008 & year <= 2012) %>%
  group_by(asfis_species_name) %>%
  summarize(catch_total = sum(catch)) %>%
  arrange(desc(catch_total))
```

```
## # A tibble: 1,472 x 2
##    asfis_species_name    catch_total
##    <chr>                       <dbl>
##  1 Theragra chalcogramma       41075
##  2 Engraulis ringens           35523
##  3 Cololabis saira              5733
##  4 Sardinella longiceps         3849
##  5 Sardinops caeruleus          3204
##  6 Brevoortia patronus          3179
##  7 Acetes japonicus             2915
##  8 Squillidae                   2884
##  9 Trachurus japonicus          2710
## 10 Ammodytes personatus         2611
## # … with 1,462 more rows
```

10. Use the data to do at least one analysis of your choice.

```r
#determine the least caught species between years 2004 and 2006. 

fisheries_tidy_focused %>%
  filter(year >= 2004 & year <= 2006) %>%
  group_by(asfis_species_name) %>%
  summarize(catch_total = sum(catch)) %>%
  arrange(catch_total)
```

```
## # A tibble: 1,381 x 2
##    asfis_species_name       catch_total
##    <chr>                          <dbl>
##  1 Nematopalaemon hastatus            0
##  2 Eledone moschata                   1
##  3 Negaprion brevirostris             1
##  4 Notolepis spp                      1
##  5 Notothenia gibberifrons            1
##  6 Oxynotus paradoxus                 1
##  7 Paratrachichthys trailli           1
##  8 Raja miraletus                     1
##  9 Symphodus melops                   2
## 10 Cypselurus agoo                    3
## # … with 1,371 more rows
```
…
