…
## Questions  
**2. Do some exploratory analysis of the `amniota` data set. Use the function(s) of your choice. Try to get an idea of how NA's are represented in the data.**  


```r
amniota %>%
  purrr::map_df(~sum(is.na(.))) %>%
  pivot_longer(everything(),
               names_to = "variables",
               values_to = "num_nas")
```

```
## # A tibble: 36 x 2
##    variables                 num_nas
##    <chr>                       <int>
##  1 class                           0
##  2 order                           0
##  3 family                          0
##  4 genus                           0
##  5 species                         0
##  6 subspecies                      0
##  7 common_name                     0
##  8 female_maturity_d               0
##  9 litter_or_clutch_size_n         0
## 10 litters_or_clutches_per_y       0
## # … with 26 more rows
```

**3. Do some exploratory analysis of the `amphibio` data set. Use the function(s) of your choice. Try to get an idea of how NA's are represented in the data.**  


```r
amphibio %>%
  purrr::map_df(~sum(is.na(.))) %>%
  pivot_longer(everything(),
               names_to = "variables",
               values_to = "num_nas") %>%
  arrange(desc(num_nas))
```

```
## # A tibble: 38 x 2
##    variables num_nas
##    <chr>       <int>
##  1 obs          6776
##  2 fruits       6774
##  3 flowers      6772
##  4 seeds        6772
##  5 leaves       6752
##  6 dry_cold     6735
##  7 vert         6657
##  8 wet_cold     6625
##  9 crepu        6608
## 10 dry_warm     6572
## # … with 28 more rows
```
…
```
## Warning: 125 parsing failures.
##  row col           expected                                                           actual           file
## 1410 OBS 1/0/T/F/TRUE/FALSE Identified as P. appendiculata in Boquimpani-Freitas et al. 2002 'amphibio.csv'
## 1416 OBS 1/0/T/F/TRUE/FALSE Identified as T. miliaris in Giaretta and Facure 2004            'amphibio.csv'
## 1447 OBS 1/0/T/F/TRUE/FALSE Considered endangered by Soto-Azat et al. 2013                   'amphibio.csv'
## 1448 OBS 1/0/T/F/TRUE/FALSE Considered extinct by Soto-Azat et al. 2013                      'amphibio.csv'
## 1471 OBS 1/0/T/F/TRUE/FALSE nomem dubitum                                                    'amphibio.csv'
## .... ... .................. ................................................................ ..............
## See problems(...) for more details.
```

```
## # A tibble: 6,776 x 38
##    id    Order Family Genus Species   Fos   Ter   Aqu   Arb Leaves Flowers Seeds
##    <chr> <chr> <chr>  <chr> <chr>   <dbl> <dbl> <dbl> <dbl>  <dbl>   <dbl> <lgl>
##  1 Anf0… Anura Allop… Allo… Alloph…    NA     1     1     1     NA      NA NA   
##  2 Anf0… Anura Alyti… Alyt… Alytes…    NA     1     1     1     NA      NA NA   
##  3 Anf0… Anura Alyti… Alyt… Alytes…    NA     1     1     1     NA      NA NA   
##  4 Anf0… Anura Alyti… Alyt… Alytes…    NA     1     1     1     NA      NA NA   
##  5 Anf0… Anura Alyti… Alyt… Alytes…    NA     1    NA     1     NA      NA NA   
##  6 Anf0… Anura Alyti… Alyt… Alytes…     1     1     1     1     NA      NA NA   
##  7 Anf0… Anura Alyti… Disc… Discog…     1     1     1    NA     NA      NA NA   
##  8 Anf0… Anura Alyti… Disc… Discog…     1     1     1    NA     NA      NA NA   
##  9 Anf0… Anura Alyti… Disc… Discog…     1     1     1    NA     NA      NA NA   
## 10 Anf0… Anura Alyti… Disc… Discog…     1     1     1    NA     NA      NA NA   
## # … with 6,766 more rows, and 26 more variables: Fruits <dbl>, Arthro <dbl>,
## #   Vert <dbl>, Diu <dbl>, Noc <dbl>, Crepu <dbl>, Wet_warm <dbl>,
## #   Wet_cold <dbl>, Dry_warm <dbl>, Dry_cold <dbl>, Body_mass_g <dbl>,
## #   Age_at_maturity_min_y <dbl>, Age_at_maturity_max_y <dbl>,
## #   Body_size_mm <dbl>, Size_at_maturity_min_mm <dbl>,
## #   Size_at_maturity_max_mm <dbl>, Longevity_max_y <dbl>,
## #   Litter_size_min_n <dbl>, Litter_size_max_n <dbl>,
## #   Reproductive_output_y <dbl>, Offspring_size_min_mm <dbl>,
## #   Offspring_size_max_mm <dbl>, Dir <dbl>, Lar <dbl>, Viv <dbl>, OBS <lgl>
```

**6. Use the package `naniar` to produce a summary, including percentages, of missing data in each column for the `amniota` data.**  

```r
naniar :: miss_var_summary(amniota_clean)
```

```
## # A tibble: 36 x 3
##    variable                       n_miss pct_miss
##    <chr>                           <int>    <dbl>
##  1 subspecies                      21322     100 
##  2 gestation_d                     21322     100 
##  3 weaning_d                       21322     100 
##  4 weaning_weight_g                21322     100 
##  5 male_svl_cm                     21322     100 
##  6 female_svl_cm                   21322     100 
##  7 female_svl_at_maturity_cm       21322     100 
##  8 female_body_mass_at_maturity_g  21322     100 
##  9 no_sex_svl_cm                   21322     100 
## 10 birth_or_hatching_svl_cm        21321     100.
## # … with 26 more rows
```

**7. Use the package `naniar` to produce a summary, including percentages, of missing data in each column for the `amphibio` data.**

```r
naniar :: miss_var_summary(amphibio_clean)
```

```
## # A tibble: 38 x 3
##    variable n_miss pct_miss
##    <chr>     <int>    <dbl>
##  1 obs        6776    100  
##  2 fruits     6774    100. 
##  3 flowers    6772     99.9
##  4 seeds      6772     99.9
##  5 leaves     6752     99.6
##  6 dry_cold   6735     99.4
##  7 vert       6657     98.2
##  8 wet_cold   6625     97.8
##  9 crepu      6608     97.5
## 10 dry_warm   6572     97.0
## # … with 28 more rows
```
…
